0.822815 0.746582 0.174103 0.858917 0.71048 0.513519 0.303986 0.0149841 0.654545
0.0914001 0.364441 0.147308 0.165894 0.988495 0.445679 0.11908 0.00466919 0.470734
0.00891113 0.377869 0.531647 0.571167 0.601746 0.607147 0.166229 0.663025 0.597361
0.450775 0.352112 0.0570374 0.607666 0.783295 0.802582 0.519867 0.301941 0.623155
0.875946 0.726654 0.955872 0.92569 0.539337 0.142334 0.462067 0.235321 0.693798
0.862213 0.209595 0.779633 0.843628 0.996765 0.999664 0.611481 0.392426 0.805569
0.266205 0.297272 0.840118 0.0237427 0.375854 0.0926208 0.677185 0.0562134 0.34523
0.00878906 0.918762 0.275879 0.272888 0.587891 0.691162 0.837585 0.726471 0.729411
0.484924 0.205353 0.743713 0.468445 0.457947 0.949127 0.744415 0.108276 0.579547
0.59903 0.385223 0.734985 0.608948 0.572388 0.361328 0.15155 0.225098 0.50675
0.42514 0.802856 0.51709 0.98996 0.751526 0.345551 0.168976 0.657288 0.799308
0.491882 0.0635376 0.699738 0.504791 0.147491 0.949554 0.141571 0.90509 0.695535
0.692871 0.30304 0.426544 0.0703735 0.966583 0.683167 0.153229 0.877228 0.709191
0.821655 0.582031 0.191345 0.177887 0.817169 0.47525 0.155548 0.503906 0.557812
0.731995 0.405579 0.279572 0.568726 0.68222 0.755829 0.721893 0.475281 0.629972
0.123016 0.367798 0.834656 0.0350952 0.516998 0.662964 0.426208 0.104675 0.444792
0.94931 0.921356 0.54953 0.345978 0.47171 0.374969 0.846954 0.316864 0.609309
0.456085 0.271881 0.982941 0.297791 0.739166 0.567261 0.195984 0.761292 0.649997
0.839417 0.397644 0.500885 0.890137 0.0274658 0.994598 0.572571 0.0505066 0.651465
0.531311 0.194061 0.843018 0.62674 0.657593 0.197845 0.842133 0.123322 0.56168
0.109924 0.743103 0.314056 0.94104 0.286072 0.336304 0.140259 0.733063 0.734052
0.834595 0.707977 0.60022 0.747192 0.252716 0.14447 0.00161743 0.0610046 0.513954
0.806213 0.8526 0.210571 0.115601 0.553192 0.0142517 0.11377 0.454498 0.505472
0.752197 0.686127 0.543427 0.0738831 0.436707 0.201935 0.696198 0.290344 0.472724
0.436676 0.232422 0.57785 0.532562 0.628662 0.160187 0.50412 0.963013 0.70768
0.69574 0.924774 0.189941 0.335938 0.178345 0.995148 0.457428 0.997986 0.80721
0.0975037 0.625153 0.0943909 0.437714 0.931488 0.0484314 0.894592 0.290009 0.631809
0.227295 0.769043 0.410706 0.201965 0.628052 0.604126 0.451599 0.466339 0.58117
0.597809 0.634705 0.854767 0.828766 0.624756 0.720886 0.565735 0.375122 0.709382
0.184265 0.737885 0.555115 0.90506 0.242859 0.188934 0.604706 0.698486 0.72737
0.584595 0.351288 0.494446 0.0803833 0.740723 0.61203 0.620361 0.691101 0.606049
0.804504 0.149109 0.576019 0.867706 0.91153 0.614685 0.727661 0.0432129 0.688402
0.667755 0.976501 0.315002 0.569183 0.305817 0.17392 0.108551 0.869019 0.723678
0.851196 0.744293 0.154877 0.326904 0.0793457 0.0765991 0.640961 0.819977 0.613833
0.545074 0.448242 0.408966 0.298737 0.465546 0.50119 0.152649 0.323029 0.416224
0.737976 0.313873 0.82666 0.959045 0.873322 0.725006 0.300049 0.94397 0.866358
0.127228 0.0657349 0.784943 0.524567 0.609619 0.956085 0.0722656 0.87561 0.734978
0.653839 0.322113 0.104797 0.505035 0.227081 0.290283 0.919952 0.551147 0.541841
0.662781 0.114532 0.492523 0.37912 0.496796 0.793335 0.509247 0.382355 0.512279
0.688141 0.532135 0.606262 0.395172 0.00588989 0.707855 0.100616 0.623047 0.545734
0.86322 0.491486 0.747314 0.496887 0.380096 0.785339 0.552795 0.357086 0.567228
0.955688 0.630829 0.176575 0.374237 0.131622 0.743256 0.951691 0.611969 0.636732
0.027832 0.329834 0.0559082 0.639191 0.131622 0.847046 0.864288 0.596863 0.649872
0.721619 0.853943 0.014679 0.126465 0.707886 0.617126 0.21756 0.0659485 0.526076
0.168915 0.624084 0.340973 0.319397 0.367554 0.66098 0.802368 0.806854 0.673133
0.52652 0.611084 0.798157 0.900574 0.144806 0.630157 0.402405 0.253693 0.654932
0.136536 0.855164 0.0661621 0.427795 0.573334 0.302277 0.548035 0.225555 0.554944
0.31134 0.110626 0.808014 0.134705 0.284241 0.788086 0.895203 0.789612 0.642231
0.743774 0.615204 0.361115 0.856628 0.228485 0.863556 0.229431 0.249542 0.647536
0.542389 0.984802 0.0538025 0.0814209 0.524658 0.426788 0.0946655 0.258789 0.517395
0.89151 0.232758 0.146545 0.125092 0.93161 0.0801086 0.0470886 0.0587158 0.371296
0.336395 0.914673 0.39859 0.43277 0.946136 0.837158 0.53421 0.842072 0.826896
0.693512 0.397675 0.259155 0.0043335 0.525574 0.954773 0.398682 0.241089 0.497247
0.585541 0.255127 0.68399 0.945251 0.435486 0.890198 0.00717163 0.940948 0.817303
0.601532 0.786133 0.57666 0.142426 0.222321 0.382996 0.00427246 0.417908 0.470109
0.0822449 0.659912 0.855072 0.0648499 0.811035 0.662048 0.691467 0.802673 0.713748
0.530121 0.685608 0.142761 0.689484 0.727875 0.77771 0.0310669 0.868652 0.759315
0.644501 0.706543 0.0854492 0.551971 0.947876 0.0587769 0.274963 0.145172 0.59547
0.98175 0.619965 0.292236 0.922455 0.367523 0.694519 0.218628 0.155914 0.649322
0.24054 0.521423 0.902252 0.106415 0.902618 0.441711 0.0801086 0.782074 0.679055
0.171783 0.974365 0.775848 0.870361 0.210632 0.456604 0.00375366 0.75061 0.775183
0.114044 0.404694 0.311127 0.992584 0.0385742 0.252075 0.18927 0.247681 0.567491
0.153503 0.6203 0.885345 0.939056 0.195648 0.779633 0.645538 0.656738 0.774422
0.909119 0.455444 0.921265 0.664154 0.150757 0.636322 0.569519 0.422028 0.592177
0.942993 0.540558 0.578552 0.536438 0.25528 0.396942 0.35025 0.0366211 0.438548
0.795227 0.196503 0.070282 0.389404 0.590729 0.0709229 0.197662 0.155884 0.357171
0.644318 0.454315 0.604279 0.697327 0.441284 0.684448 0.396515 0.835693 0.709896
0.592194 0.199585 0.949432 0.875977 0.391693 0.987427 0.185303 0.895691 0.811654
0.574432 0.442047 0.627319 0.708496 0.0496216 0.285553 0.260193 0.407623 0.515437
0.895294 0.710175 0.728424 0.896027 0.393555 0.3974 0.903839 0.308594 0.710607
0.388092 0.570557 0.353546 0.733673 0.745331 0.736359 0.73941 0.139313 0.652949
0.200165 0.272583 0.68042 0.911102 0.367828 0.517639 0.109375 0.90741 0.757206
0.203064 0.517944 0.654816 0.438507 0.687622 0.0904236 0.0795593 0.0757751 0.459882
0.0278015 0.355072 0.30722 0.697266 0.14267 0.394836 0.0678406 0.67572 0.567761
0.724915 0.1987 0.694 0.615692 0.654877 0.543976 0.0982971 0.545349 0.574278
0.0496216 0.974548 0.46402 0.96994 0.727844 0.530945 0.679901 0.69278 0.850709
0.372101 0.388611 0.0499573 0.809753 0.169556 0.0608215 0.310547 0.784454 0.633677
0.212463 0.321899 0.48465 0.00915527 0.43985 0.507843 0.605927 0.758514 0.563752
0.401062 0.349792 0.842621 0.942291 0.623291 0.997253 0.0534668 0.562836 0.783349
0.863525 0.386749 0.306396 0.28421 0.0267029 0.612549 0.391174 0.0186157 0.348493
0.0310364 0.455688 0.85791 0.936737 0.401886 0.727264 0.611572 0.80835 0.799063
0.875397 0.582581 0.595001 0.07901 0.793152 0.462189 0.590607 0.589417 0.5962
0.569183 0.81604 0.672729 0.343567 0.0102234 0.267303 0.341553 0.232086 0.46011
0.770996 0.371735 0.869843 0.116852 0.725555 0.628906 0.893921 0.183014 0.568942
0.535553 0.901978 0.78006 0.965179 0.197357 0.90152 0.797394 0.953369 0.896892
0.848785 0.89032 0.628693 0.185455 0.616913 0.264984 0.250641 0.732178 0.65278
0.788086 0.170929 0.713867 0.480927 0.0814819 0.806519 0.855316 0.124634 0.522183
0.307465 0.573303 0.472961 0.762024 0.191864 0.727753 0.994995 0.0153503 0.637944
0.647614 0.69162 0.174133 0.072113 0.274963 0.676605 0.838898 0.556641 0.580104
0.371216 0.77948 0.232513 0.638214 0.231659 0.20459 0.971008 0.281738 0.606453
0.0228882 0.769196 0.151825 0.0469666 0.00924683 0.348572 0.64386 0.343231 0.445238
0.414551 0.416504 0.0906677 0.545166 0.699249 0.337982 0.657501 0.876221 0.704623
0.535461 0.570007 0.0539856 0.465759 0.259979 0.426788 0.863312 0.486572 0.545504
0.0874329 0.565796 0.709381 0.778442 0.864197 0.850525 0.292999 0.864349 0.811463
0.644897 0.746826 0.828613 0.765594 0.871887 0.908295 0.912506 0.521942 0.817859
0.440155 0.107635 0.354004 0.823029 0.427704 0.16983 0.000854492 0.65744 0.603434
0.773529 0.0637207 0.0898132 0.385651 0.683868 0.807587 0.154083 0.142853 0.48211
0.0484619 0.34613 0.0185547 0.978394 0.647614 0.0536499 0.914124 0.637451 0.751288
0.431702 0.0210571 0.242584 0.391937 0.653992 0.78186 0.0228271 0.826019 0.644387
0.138428 0.634247 0.550385 0.983459 0.463409 0.214783 0.30069 0.782135 0.772184
